<svg version="1.0" id="el_LvG-skmT1FY" xmlns="http://www.w3.org/2000/svg" xmlns:xlink="http://www.w3.org/1999/xlink" x="0px" y="0px" viewBox="0 0 300 54" enable-background="new 0 0 300 54">
    <style>
        @-webkit-keyframes el_anwOgsGac_g_Zxr70cSGb_Animation{30%{-webkit-transform: scale(0, 0);transform: scale(0, 0);}46.67%{-webkit-transform: scale(1, 1);transform: scale(1, 1);}0%{-webkit-transform: scale(0, 0);transform: scale(0, 0);}100%{-webkit-transform: scale(1, 1);transform: scale(1, 1);}}@keyframes el_anwOgsGac_g_Zxr70cSGb_Animation{30%{-webkit-transform: scale(0, 0);transform: scale(0, 0);}46.67%{-webkit-transform: scale(1, 1);transform: scale(1, 1);}0%{-webkit-transform: scale(0, 0);transform: scale(0, 0);}100%{-webkit-transform: scale(1, 1);transform: scale(1, 1);}}@-webkit-keyframes el_0TLfJ07CbiC_Animation{46.67%{opacity: 0;}66.67%{opacity: 1;}0%{opacity: 0;}100%{opacity: 1;}}@keyframes el_0TLfJ07CbiC_Animation{46.67%{opacity: 0;}66.67%{opacity: 1;}0%{opacity: 0;}100%{opacity: 1;}}#el_LvG-skmT1FY *{-webkit-animation-duration: 3s;animation-duration: 3s;-webkit-animation-timing-function: cubic-bezier(0, 0, 1, 1);animation-timing-function: cubic-bezier(0, 0, 1, 1);}#el_L8qTH2OuX6B{fill: #FFFFFF;}#el_kR0lrk72S24{fill: #FFFFFF;}#el_PS_5gw5kxiU{fill: #FFFFFF;}#el_iCLQJ8DSu7D{fill: #FFFFFF;}#el_SPYPKJFQnQ-{fill: #FFFFFF;}#el_GKPu6AIK3t5{fill: #FFFFFF;}#el_1JP2za0yka5{fill: #FFFFFF;}#el_2HhWAt8U_Eq{fill: #FFFFFF;}#el_4YJ_4GiXUmy{fill: #FFFFFF;}#el_anwOgsGac_g{fill: #BE1622;}#el_0TLfJ07CbiC{-webkit-animation-name: el_0TLfJ07CbiC_Animation;animation-name: el_0TLfJ07CbiC_Animation;-webkit-animation-timing-function: cubic-bezier(0.42, 0, 0.58, 1);animation-timing-function: cubic-bezier(0.42, 0, 0.58, 1);opacity: 1;}#el_anwOgsGac_g_Zxr70cSGb{-webkit-animation-name: el_anwOgsGac_g_Zxr70cSGb_Animation;animation-name: el_anwOgsGac_g_Zxr70cSGb_Animation;-webkit-animation-timing-function: cubic-bezier(0.42, 0, 0.58, 1);animation-timing-function: cubic-bezier(0.42, 0, 0.58, 1);-webkit-transform-origin: 50% 50%;transform-origin: 50% 50%;transform-box: fill-box;-webkit-transform: scale(1, 1);transform: scale(1, 1);}
    </style>
    <g id="el_sbxbUi6Qd3t">
        <g id="el_0TLfJ07CbiC">
            <path d="M82.97,18.007c0.727-1.771,1.649-3.106,2.77-4.008c1.12-0.9,2.43-1.35,3.928-1.35
			c2.271,0,3.966,0.783,5.086,2.349c1.12,1.567,1.68,3.933,1.68,7.096v12.942h3.383v2.406H89.395v-2.406h3.27V22.57
			c0-2.467-0.326-4.223-0.976-5.268c-0.651-1.044-1.733-1.566-3.247-1.566c-1.68,0-2.959,0.704-3.837,2.111
			c-0.878,1.408-1.317,3.459-1.317,6.153v11.035h3.27v2.406H76.271v-2.406h3.27V22.411c0-2.406-0.329-4.12-0.988-5.143
			c-0.658-1.021-1.745-1.532-3.258-1.532c-1.665,0-2.937,0.704-3.814,2.111c-0.878,1.408-1.316,3.459-1.316,6.153v11.035h3.27v2.406
			H63.012v-2.406h3.383V15.69h-3.587v-2.383h7.356v4.291c0.681-1.604,1.563-2.831,2.645-3.678c1.082-0.848,2.304-1.271,3.667-1.271
			c1.681,0,3.088,0.465,4.224,1.396C81.834,14.976,82.591,16.297,82.97,18.007z" id="el_L8qTH2OuX6B"/>
            <path d="M124.146,25.817h-16.212v0.182c0,3.254,0.553,5.709,1.658,7.367s2.732,2.486,4.881,2.486
			c1.65,0,3.005-0.48,4.064-1.441s1.801-2.389,2.225-4.279h3.02c-0.606,2.648-1.714,4.639-3.327,5.971
			c-1.612,1.332-3.735,1.998-6.369,1.998c-3.179,0-5.729-1.162-7.651-3.486c-1.923-2.322-2.884-5.406-2.884-9.252
			c0-3.813,0.946-6.886,2.838-9.217c1.892-2.33,4.375-3.496,7.447-3.496c3.285,0,5.805,1.123,7.561,3.371
			C123.155,18.268,124.07,21.534,124.146,25.817z M119.719,23.411c-0.091-2.816-0.628-4.938-1.612-6.369s-2.406-2.146-4.269-2.146
			c-1.726,0-3.084,0.719-4.075,2.157c-0.992,1.438-1.601,3.557-1.828,6.357H119.719z" id="el_kR0lrk72S24"/>
            <path d="M147.136,22.366v12.67h3.36v2.406h-7.106v-2.611c-0.832,1.119-1.793,1.945-2.883,2.475
			s-2.37,0.795-3.838,0.795c-2.406,0-4.318-0.711-5.733-2.135c-1.416-1.422-2.123-3.346-2.123-5.768c0-2.496,0.81-4.434,2.43-5.812
			c1.619-1.377,3.906-2.065,6.857-2.065h5.291v-1.658c0-1.831-0.503-3.25-1.51-4.257s-2.41-1.51-4.212-1.51
			c-1.514,0-2.709,0.378-3.587,1.135c-0.878,0.757-1.431,1.877-1.658,3.36h-1.93v-4.881c1.302-0.621,2.569-1.086,3.804-1.396
			c1.233-0.311,2.433-0.465,3.599-0.465c3.012,0,5.305,0.828,6.879,2.485S147.136,19.203,147.136,22.366z M143.39,29.858v-5.109
			h-4.859c-1.862,0-3.251,0.447-4.167,1.34c-0.916,0.895-1.374,2.264-1.374,4.109c0,1.682,0.465,3.014,1.397,3.996
			c0.931,0.984,2.183,1.477,3.758,1.477c1.574,0,2.841-0.537,3.803-1.611C142.909,32.983,143.39,31.585,143.39,29.858z" id="el_PS_5gw5kxiU"/>
            <path d="M156.685,15.736h-3.315v-2.429h3.315V5.815h3.769v7.492h7.084v2.429h-7.084v15.325
			c0,2.043,0.179,3.354,0.534,3.928c0.355,0.576,1.01,0.863,1.964,0.863c0.983,0,1.699-0.322,2.146-0.965s0.685-1.684,0.715-3.121
			h2.839c-0.106,2.193-0.644,3.799-1.612,4.813s-2.438,1.521-4.405,1.521c-2.164,0-3.697-0.533-4.598-1.602
			c-0.9-1.066-1.351-2.879-1.351-5.438V15.736z" id="el_iCLQJ8DSu7D"/>
            <path d="M173.654,36.103v-5.631h2.157c0.045,1.801,0.548,3.148,1.51,4.041c0.961,0.893,2.388,1.34,4.279,1.34
			c1.681,0,2.963-0.352,3.849-1.057c0.886-0.703,1.328-1.729,1.328-3.076c0-1.059-0.321-1.914-0.965-2.564
			c-0.644-0.652-2.009-1.348-4.098-2.09l-2.725-1.021c-1.862-0.666-3.213-1.498-4.054-2.497c-0.84-0.999-1.26-2.271-1.26-3.814
			c0-2.21,0.73-3.943,2.191-5.199c1.46-1.257,3.478-1.884,6.051-1.884c1.15,0,2.357,0.166,3.621,0.498
			c1.264,0.334,2.569,0.818,3.917,1.453v5.268H187.3c-0.061-1.559-0.553-2.777-1.476-3.655c-0.924-0.878-2.188-1.316-3.792-1.316
			c-1.574,0-2.767,0.311-3.576,0.931c-0.81,0.621-1.215,1.552-1.215,2.793c0,1.014,0.307,1.827,0.92,2.44s1.835,1.237,3.667,1.873
			l2.997,1.022c2.059,0.711,3.538,1.6,4.438,2.666c0.9,1.068,1.352,2.441,1.352,4.121c0,2.287-0.784,4.084-2.351,5.393
			c-1.566,1.311-3.734,1.965-6.505,1.965c-1.407,0-2.777-0.166-4.109-0.5C176.318,37.269,174.986,36.769,173.654,36.103z" id="el_SPYPKJFQnQ-"/>
            <path d="M198.074,15.736h-3.61v-2.429h7.379v3.769c0.742-1.514,1.681-2.63,2.815-3.349
			c1.136-0.719,2.543-1.078,4.224-1.078c2.664,0,4.84,1.172,6.527,3.519c1.688,2.346,2.532,5.411,2.532,9.194
			c0,3.785-0.845,6.854-2.532,9.207s-3.863,3.531-6.527,3.531c-1.681,0-3.088-0.359-4.224-1.078
			c-1.135-0.719-2.073-1.836-2.815-3.35v11.012h3.565v2.43h-10.944v-2.43h3.61V15.736z M201.843,24.183v2.383
			c0,2.906,0.5,5.121,1.499,6.643s2.452,2.281,4.359,2.281c1.922,0,3.379-0.855,4.37-2.566c0.991-1.709,1.487-4.23,1.487-7.561
			c0-3.344-0.496-5.864-1.487-7.56s-2.448-2.543-4.37-2.543c-1.907,0-3.36,0.765-4.359,2.293
			C202.343,19.082,201.843,21.292,201.843,24.183z" id="el_GKPu6AIK3t5"/>
            <path d="M240.953,22.366v12.67h3.36v2.406h-7.106v-2.611c-0.833,1.119-1.794,1.945-2.884,2.475
			s-2.369,0.795-3.837,0.795c-2.407,0-4.318-0.711-5.733-2.135c-1.415-1.422-2.123-3.346-2.123-5.768c0-2.496,0.81-4.434,2.43-5.812
			c1.619-1.377,3.905-2.065,6.856-2.065h5.291v-1.658c0-1.831-0.504-3.25-1.51-4.257c-1.007-1.007-2.411-1.51-4.212-1.51
			c-1.514,0-2.71,0.378-3.588,1.135s-1.431,1.877-1.657,3.36h-1.93v-4.881c1.302-0.621,2.569-1.086,3.803-1.396
			s2.434-0.465,3.599-0.465c3.013,0,5.306,0.828,6.88,2.485S240.953,19.203,240.953,22.366z M237.207,29.858v-5.109h-4.859
			c-1.861,0-3.25,0.447-4.166,1.34c-0.916,0.895-1.374,2.264-1.374,4.109c0,1.682,0.466,3.014,1.396,3.996
			c0.931,0.984,2.184,1.477,3.758,1.477s2.842-0.537,3.803-1.611C236.727,32.983,237.207,31.585,237.207,29.858z" id="el_1JP2za0yka5"/>
            <path d="M267.508,30.198c-0.53,2.574-1.552,4.535-3.065,5.881c-1.514,1.348-3.474,2.021-5.881,2.021
			c-3.148,0-5.684-1.162-7.605-3.486c-1.923-2.322-2.884-5.406-2.884-9.252c0-3.859,0.961-6.943,2.884-9.251
			c1.922-2.308,4.457-3.462,7.605-3.462c1.378,0,2.748,0.178,4.11,0.533s2.731,0.896,4.109,1.623v6.176h-2.18
			c-0.288-2.119-0.912-3.663-1.873-4.632c-0.962-0.969-2.335-1.453-4.121-1.453c-2.028,0-3.562,0.874-4.598,2.622
			c-1.037,1.748-1.556,4.363-1.556,7.844c0,3.482,0.515,6.102,1.544,7.857s2.565,2.633,4.609,2.633c1.619,0,2.913-0.469,3.883-1.408
			c0.969-0.938,1.627-2.354,1.976-4.246H267.508z" id="el_2HhWAt8U_Eq"/>
            <path d="M292.609,25.817h-16.212v0.182c0,3.254,0.553,5.709,1.658,7.367c1.104,1.658,2.731,2.486,4.881,2.486
			c1.65,0,3.005-0.48,4.064-1.441s1.801-2.389,2.225-4.279h3.021c-0.605,2.648-1.715,4.639-3.326,5.971
			c-1.612,1.332-3.735,1.998-6.369,1.998c-3.179,0-5.729-1.162-7.651-3.486c-1.923-2.322-2.884-5.406-2.884-9.252
			c0-3.813,0.946-6.886,2.838-9.217c1.893-2.33,4.375-3.496,7.447-3.496c3.285,0,5.805,1.123,7.562,3.371
			C291.617,18.268,292.533,21.534,292.609,25.817z M288.182,23.411c-0.091-2.816-0.628-4.938-1.612-6.369
			c-0.983-1.431-2.406-2.146-4.269-2.146c-1.726,0-3.084,0.719-4.075,2.157c-0.991,1.438-1.601,3.557-1.828,6.357H288.182z" id="el_4YJ_4GiXUmy"/>
        </g>
        <g id="el_anwOgsGac_g_Zxr70cSGb" data-animator-group="true" data-animator-type="2">
            <path d="M51.689,43.692H6.335V6.842h45.354V43.692z M12.292,37.745h33.441V12.789H12.292V37.745z" id="el_anwOgsGac_g"/>
        </g>
    </g>
    <script>
        (function(){var a=document.querySelector('#el_LvG-skmT1FY'),b=a.querySelectorAll('style'),c=function(d){b.forEach(function(f){var g=f.textContent;g&amp;&amp;(f.textContent=g.replace(/transform-box:[^;\r\n]*/gi,'transform-box: '+d))})};c('initial'),window.requestAnimationFrame(function(){return c('fill-box')})})();
    </script>
</svg>